\BOOKMARK [2][]{Outline0.1}{Sensor laser}{}% 1
\BOOKMARK [2][]{Outline0.2}{Navega\347\343o}{}% 2
\BOOKMARK [2][]{Outline0.3}{Par\342metros}{}% 3
\BOOKMARK [3][]{Outline0.3.1.6}{Odometria}{Outline0.3}% 4
\BOOKMARK [3][]{Outline0.3.2.7}{Transformada}{Outline0.3}% 5
\BOOKMARK [2][]{Outline0.4}{T\363picos do rob\364}{}% 6
\BOOKMARK [2][]{Outline0.5}{Costmap}{}% 7
\BOOKMARK [3][]{Outline0.5.1.14}{Common params}{Outline0.5}% 8
\BOOKMARK [3][]{Outline0.5.2.15}{Global costmap}{Outline0.5}% 9
\BOOKMARK [3][]{Outline0.5.3.16}{Local costmap}{Outline0.5}% 10
\BOOKMARK [3][]{Outline0.5.4.17}{Base local planner}{Outline0.5}% 11
\BOOKMARK [2][]{Outline0.6}{Exerc\355cio}{}% 12
