\relax 
\providecommand\hyper@newdestlabel[2]{}
\providecommand\HyperFirstAtBeginDocument{\AtBeginDocument}
\HyperFirstAtBeginDocument{\ifx\hyper@anchor\@undefined
\global\let\oldcontentsline\contentsline
\gdef\contentsline#1#2#3#4{\oldcontentsline{#1}{#2}{#3}}
\global\let\oldnewlabel\newlabel
\gdef\newlabel#1#2{\newlabelxx{#1}#2}
\gdef\newlabelxx#1#2#3#4#5#6{\oldnewlabel{#1}{{#2}{#3}}}
\AtEndDocument{\ifx\hyper@anchor\@undefined
\let\contentsline\oldcontentsline
\let\newlabel\oldnewlabel
\fi}
\fi}
\global\let\hyper@last\relax 
\gdef\HyperFirstAtBeginDocument#1{#1}
\providecommand\HyField@AuxAddToFields[1]{}
\providecommand\HyField@AuxAddToCoFields[2]{}
\catcode `"\active 
\providecommand \oddpage@label [2]{}
\@writefile{toc}{\beamer@endinputifotherversion {3.24pt}}
\@writefile{nav}{\beamer@endinputifotherversion {3.24pt}}
\select@language{brazil}
\@writefile{toc}{\select@language{brazil}}
\@writefile{lof}{\select@language{brazil}}
\@writefile{lot}{\select@language{brazil}}
\select@language{brazil}
\@writefile{toc}{\select@language{brazil}}
\@writefile{lof}{\select@language{brazil}}
\@writefile{lot}{\select@language{brazil}}
\@writefile{nav}{\headcommand {\slideentry {0}{0}{1}{1/1}{}{0}}}
\@writefile{nav}{\headcommand {\beamer@framepages {1}{1}}}
\@writefile{nav}{\headcommand {\slideentry {0}{0}{2}{2/2}{}{0}}}
\@writefile{nav}{\headcommand {\beamer@framepages {2}{2}}}
\@writefile{toc}{\beamer@sectionintoc {1}{Utilizando Webcam e OpenCV}{3}{0}{1}}
\@writefile{nav}{\headcommand {\sectionentry {1}{Utilizando Webcam e OpenCV}{3}{Utilizando Webcam e OpenCV}{0}}}
\@writefile{nav}{\headcommand {\beamer@sectionpages {1}{2}}}
\@writefile{nav}{\headcommand {\beamer@subsectionpages {1}{2}}}
\@writefile{toc}{\beamer@subsectionintoc {1}{1}{Segmenta\IeC {\c c}\IeC {\~a}o de Cor}{3}{0}{1}}
\@writefile{nav}{\headcommand {\beamer@subsectionentry {0}{1}{1}{3}{Segmenta\IeC {\c c}\IeC {\~a}o de Cor}}\headcommand {\beamer@subsectionpages {3}{2}}}
\@writefile{nav}{\headcommand {\slideentry {1}{1}{1}{3/3}{Segmenta\IeC {\c c}\IeC {\~a}o de Cor}{0}}}
\@writefile{nav}{\headcommand {\beamer@framepages {3}{3}}}
\@writefile{nav}{\headcommand {\slideentry {1}{1}{2}{4/4}{Segmenta\IeC {\c c}\IeC {\~a}o de Cor}{0}}}
\@writefile{nav}{\headcommand {\beamer@framepages {4}{4}}}
\@writefile{nav}{\headcommand {\slideentry {1}{1}{3}{5/5}{Segmenta\IeC {\c c}\IeC {\~a}o de Cor}{0}}}
\@writefile{nav}{\headcommand {\beamer@framepages {5}{5}}}
\@writefile{nav}{\headcommand {\slideentry {1}{1}{4}{6/6}{Segmenta\IeC {\c c}\IeC {\~a}o de Cor}{0}}}
\@writefile{nav}{\headcommand {\beamer@framepages {6}{6}}}
\@writefile{nav}{\headcommand {\slideentry {1}{1}{5}{7/7}{Segmenta\IeC {\c c}\IeC {\~a}o de Cor}{0}}}
\@writefile{nav}{\headcommand {\beamer@framepages {7}{7}}}
\@writefile{nav}{\headcommand {\slideentry {1}{1}{6}{8/8}{Segmenta\IeC {\c c}\IeC {\~a}o de Cor}{0}}}
\@writefile{nav}{\headcommand {\beamer@framepages {8}{8}}}
\@writefile{nav}{\headcommand {\slideentry {1}{1}{7}{9/9}{Segmenta\IeC {\c c}\IeC {\~a}o de Cor}{0}}}
\@writefile{nav}{\headcommand {\beamer@framepages {9}{9}}}
\@writefile{nav}{\headcommand {\slideentry {1}{1}{8}{10/10}{Segmenta\IeC {\c c}\IeC {\~a}o de Cor}{0}}}
\@writefile{nav}{\headcommand {\beamer@framepages {10}{10}}}
\@writefile{nav}{\headcommand {\slideentry {1}{1}{9}{11/11}{Segmenta\IeC {\c c}\IeC {\~a}o de Cor}{0}}}
\@writefile{nav}{\headcommand {\beamer@framepages {11}{11}}}
\@writefile{nav}{\headcommand {\slideentry {1}{1}{10}{12/12}{Segmenta\IeC {\c c}\IeC {\~a}o de Cor}{0}}}
\@writefile{nav}{\headcommand {\beamer@framepages {12}{12}}}
\@writefile{toc}{\beamer@subsectionintoc {1}{2}{Detec\IeC {\c c}\IeC {\~a}o Facial}{13}{0}{1}}
\@writefile{nav}{\headcommand {\beamer@subsectionentry {0}{1}{2}{13}{Detec\IeC {\c c}\IeC {\~a}o Facial}}\headcommand {\beamer@subsectionpages {3}{12}}}
\@writefile{nav}{\headcommand {\slideentry {1}{2}{1}{13/13}{Detec\IeC {\c c}\IeC {\~a}o Facial}{0}}}
\@writefile{nav}{\headcommand {\beamer@framepages {13}{13}}}
\@writefile{nav}{\headcommand {\slideentry {1}{2}{2}{14/14}{Detec\IeC {\c c}\IeC {\~a}o Facial}{0}}}
\@writefile{nav}{\headcommand {\beamer@framepages {14}{14}}}
\@writefile{nav}{\headcommand {\slideentry {1}{2}{3}{15/15}{Detec\IeC {\c c}\IeC {\~a}o Facial}{0}}}
\@writefile{nav}{\headcommand {\beamer@framepages {15}{15}}}
\@writefile{nav}{\headcommand {\slideentry {1}{2}{4}{16/16}{Detec\IeC {\c c}\IeC {\~a}o Facial}{0}}}
\@writefile{nav}{\headcommand {\beamer@framepages {16}{16}}}
\@writefile{nav}{\headcommand {\slideentry {1}{2}{5}{17/17}{Detec\IeC {\c c}\IeC {\~a}o Facial}{0}}}
\@writefile{nav}{\headcommand {\beamer@framepages {17}{17}}}
\@writefile{toc}{\beamer@sectionintoc {2}{Exerc\IeC {\'\i }cio}{18}{0}{2}}
\@writefile{nav}{\headcommand {\sectionentry {2}{Exerc\IeC {\'\i }cio}{18}{Exerc\IeC {\'\i }cio}{0}}}
\@writefile{nav}{\headcommand {\beamer@sectionpages {3}{17}}}
\@writefile{nav}{\headcommand {\beamer@subsectionpages {13}{17}}}
\@writefile{nav}{\headcommand {\slideentry {2}{0}{6}{18/18}{}{0}}}
\@writefile{nav}{\headcommand {\beamer@framepages {18}{18}}}
\@writefile{toc}{\beamer@sectionintoc {3}{Utilizando Kinect}{19}{0}{3}}
\@writefile{nav}{\headcommand {\sectionentry {3}{Utilizando Kinect}{19}{Utilizando Kinect}{0}}}
\@writefile{nav}{\headcommand {\beamer@sectionpages {18}{18}}}
\@writefile{nav}{\headcommand {\beamer@subsectionpages {18}{18}}}
\@writefile{toc}{\beamer@subsectionintoc {3}{1}{Controlando a Dist\IeC {\^a}ncia}{19}{0}{3}}
\@writefile{nav}{\headcommand {\beamer@subsectionentry {0}{3}{1}{19}{Controlando a Dist\IeC {\^a}ncia}}\headcommand {\beamer@subsectionpages {19}{18}}}
\@writefile{nav}{\headcommand {\slideentry {3}{1}{1}{19/19}{Controlando a Dist\IeC {\^a}ncia}{0}}}
\@writefile{nav}{\headcommand {\beamer@framepages {19}{19}}}
\@writefile{nav}{\headcommand {\slideentry {3}{1}{2}{20/20}{Controlando a Dist\IeC {\^a}ncia}{0}}}
\@writefile{nav}{\headcommand {\beamer@framepages {20}{20}}}
\@writefile{nav}{\headcommand {\slideentry {3}{1}{3}{21/21}{Controlando a Dist\IeC {\^a}ncia}{0}}}
\@writefile{nav}{\headcommand {\beamer@framepages {21}{21}}}
\@writefile{nav}{\headcommand {\slideentry {3}{1}{4}{22/22}{Controlando a Dist\IeC {\^a}ncia}{0}}}
\@writefile{nav}{\headcommand {\beamer@framepages {22}{22}}}
\@writefile{nav}{\headcommand {\slideentry {3}{1}{5}{23/23}{Controlando a Dist\IeC {\^a}ncia}{0}}}
\@writefile{nav}{\headcommand {\beamer@framepages {23}{23}}}
\@writefile{nav}{\headcommand {\slideentry {3}{1}{6}{24/24}{Controlando a Dist\IeC {\^a}ncia}{0}}}
\@writefile{nav}{\headcommand {\beamer@framepages {24}{24}}}
\@writefile{nav}{\headcommand {\slideentry {3}{1}{7}{25/25}{Controlando a Dist\IeC {\^a}ncia}{0}}}
\@writefile{nav}{\headcommand {\beamer@framepages {25}{25}}}
\@writefile{toc}{\beamer@sectionintoc {4}{Exerc\IeC {\'\i }cio}{26}{0}{4}}
\@writefile{nav}{\headcommand {\sectionentry {4}{Exerc\IeC {\'\i }cio}{26}{Exerc\IeC {\'\i }cio}{0}}}
\@writefile{nav}{\headcommand {\beamer@sectionpages {19}{25}}}
\@writefile{nav}{\headcommand {\beamer@subsectionpages {19}{25}}}
\@writefile{nav}{\headcommand {\slideentry {4}{0}{8}{26/26}{}{0}}}
\@writefile{nav}{\headcommand {\beamer@framepages {26}{26}}}
\@writefile{toc}{\beamer@sectionintoc {5}{Ap\IeC {\^e}ndice}{27}{0}{5}}
\@writefile{nav}{\headcommand {\sectionentry {5}{Ap\IeC {\^e}ndice}{27}{Ap\IeC {\^e}ndice}{0}}}
\@writefile{nav}{\headcommand {\beamer@sectionpages {26}{26}}}
\@writefile{nav}{\headcommand {\beamer@subsectionpages {26}{26}}}
\@writefile{toc}{\beamer@subsectionintoc {5}{1}{Instala\IeC {\c c}\IeC {\~a}o do OpenCV}{27}{0}{5}}
\@writefile{nav}{\headcommand {\beamer@subsectionentry {0}{5}{1}{27}{Instala\IeC {\c c}\IeC {\~a}o do OpenCV}}\headcommand {\beamer@subsectionpages {27}{26}}}
\newlabel{opencv}{{1}{27}{Instalação do OpenCV}{Doc-Start}{}}
\@writefile{snm}{\beamer@slide {opencv}{27}}
\@writefile{nav}{\headcommand {\slideentry {5}{1}{1}{27/27}{Instala\IeC {\c c}\IeC {\~a}o do OpenCV}{0}}}
\@writefile{nav}{\headcommand {\beamer@framepages {27}{27}}}
\@writefile{nav}{\headcommand {\slideentry {5}{1}{2}{28/28}{Instala\IeC {\c c}\IeC {\~a}o do OpenCV}{0}}}
\@writefile{nav}{\headcommand {\beamer@framepages {28}{28}}}
\@writefile{nav}{\headcommand {\slideentry {5}{1}{3}{29/29}{Instala\IeC {\c c}\IeC {\~a}o do OpenCV}{0}}}
\@writefile{nav}{\headcommand {\beamer@framepages {29}{29}}}
\@writefile{toc}{\beamer@subsectionintoc {5}{2}{Instala\IeC {\c c}\IeC {\~a}o do Openni}{30}{0}{5}}
\@writefile{nav}{\headcommand {\beamer@subsectionentry {0}{5}{2}{30}{Instala\IeC {\c c}\IeC {\~a}o do Openni}}\headcommand {\beamer@subsectionpages {27}{29}}}
\newlabel{openni}{{2}{30}{Instalação do Openni}{Doc-Start}{}}
\@writefile{snm}{\beamer@slide {openni}{30}}
\@writefile{nav}{\headcommand {\slideentry {5}{2}{1}{30/30}{Instala\IeC {\c c}\IeC {\~a}o do Openni}{0}}}
\@writefile{nav}{\headcommand {\beamer@framepages {30}{30}}}
\@writefile{toc}{\beamer@sectionintoc {6}{Refer\IeC {\^e}ncias}{31}{0}{6}}
\@writefile{nav}{\headcommand {\sectionentry {6}{Refer\IeC {\^e}ncias}{31}{Refer\IeC {\^e}ncias}{0}}}
\@writefile{nav}{\headcommand {\beamer@sectionpages {27}{30}}}
\@writefile{nav}{\headcommand {\beamer@subsectionpages {30}{30}}}
\@writefile{nav}{\headcommand {\slideentry {6}{0}{2}{31/31}{}{0}}}
\@writefile{nav}{\headcommand {\beamer@framepages {31}{31}}}
\@writefile{nav}{\headcommand {\beamer@partpages {1}{31}}}
\@writefile{nav}{\headcommand {\beamer@subsectionpages {31}{31}}}
\@writefile{nav}{\headcommand {\beamer@sectionpages {31}{31}}}
\@writefile{nav}{\headcommand {\beamer@documentpages {31}}}
\@writefile{nav}{\headcommand {\def \inserttotalframenumber {29}}}
