\relax 
\providecommand\hyper@newdestlabel[2]{}
\providecommand\HyperFirstAtBeginDocument{\AtBeginDocument}
\HyperFirstAtBeginDocument{\ifx\hyper@anchor\@undefined
\global\let\oldcontentsline\contentsline
\gdef\contentsline#1#2#3#4{\oldcontentsline{#1}{#2}{#3}}
\global\let\oldnewlabel\newlabel
\gdef\newlabel#1#2{\newlabelxx{#1}#2}
\gdef\newlabelxx#1#2#3#4#5#6{\oldnewlabel{#1}{{#2}{#3}}}
\AtEndDocument{\ifx\hyper@anchor\@undefined
\let\contentsline\oldcontentsline
\let\newlabel\oldnewlabel
\fi}
\fi}
\global\let\hyper@last\relax 
\gdef\HyperFirstAtBeginDocument#1{#1}
\providecommand\HyField@AuxAddToFields[1]{}
\providecommand\HyField@AuxAddToCoFields[2]{}
\providecommand \oddpage@label [2]{}
\@writefile{nav}{\headcommand {\slideentry {0}{0}{1}{1/1}{}{0}}}
\@writefile{nav}{\headcommand {\beamer@framepages {1}{1}}}
\@writefile{nav}{\headcommand {\slideentry {0}{0}{2}{2/2}{}{0}}}
\@writefile{nav}{\headcommand {\beamer@framepages {2}{2}}}
\@writefile{toc}{\beamer@sectionintoc {1}{O que \IeC {\'e} ROS?}{3}{0}{1}}
\@writefile{nav}{\headcommand {\beamer@sectionpages {1}{2}}}
\@writefile{nav}{\headcommand {\beamer@subsectionpages {1}{2}}}
\@writefile{nav}{\headcommand {\sectionentry {1}{O que \IeC {\'e} ROS?}{3}{O que \IeC {\'e} ROS?}{0}}}
\@writefile{toc}{\beamer@subsectionintoc {1}{1}{Desafios da rob\IeC {\'o}tica}{3}{0}{1}}
\@writefile{nav}{\headcommand {\beamer@subsectionpages {3}{2}}}
\@writefile{nav}{\headcommand {\beamer@subsectionentry {0}{1}{1}{3}{Desafios da rob\IeC {\'o}tica}}}
\@writefile{nav}{\headcommand {\slideentry {1}{1}{1}{3/3}{Desafios da rob\IeC {\'o}tica}{0}}}
\@writefile{nav}{\headcommand {\beamer@framepages {3}{3}}}
\@writefile{nav}{\headcommand {\slideentry {1}{1}{2}{4/4}{Desafios da rob\IeC {\'o}tica}{0}}}
\@writefile{nav}{\headcommand {\beamer@framepages {4}{4}}}
\@writefile{toc}{\beamer@subsectionintoc {1}{2}{O que \IeC {\'e} ROS?}{5}{0}{1}}
\@writefile{nav}{\headcommand {\beamer@subsectionpages {3}{4}}}
\@writefile{nav}{\headcommand {\beamer@subsectionentry {0}{1}{2}{5}{O que \IeC {\'e} ROS?}}}
\@writefile{nav}{\headcommand {\slideentry {1}{2}{1}{5/5}{O que \IeC {\'e} ROS?}{0}}}
\@writefile{nav}{\headcommand {\beamer@framepages {5}{5}}}
\@writefile{toc}{\beamer@sectionintoc {2}{Hist\IeC {\'o}ria}{6}{0}{2}}
\@writefile{nav}{\headcommand {\beamer@sectionpages {3}{5}}}
\@writefile{nav}{\headcommand {\beamer@subsectionpages {5}{5}}}
\@writefile{nav}{\headcommand {\sectionentry {2}{Hist\IeC {\'o}ria}{6}{Hist\IeC {\'o}ria}{0}}}
\@writefile{nav}{\headcommand {\slideentry {2}{0}{1}{6/6}{}{0}}}
\@writefile{nav}{\headcommand {\beamer@framepages {6}{6}}}
\@writefile{nav}{\headcommand {\slideentry {2}{0}{2}{7/7}{}{0}}}
\@writefile{nav}{\headcommand {\beamer@framepages {7}{7}}}
\@writefile{nav}{\headcommand {\slideentry {2}{0}{3}{8/8}{}{0}}}
\@writefile{nav}{\headcommand {\beamer@framepages {8}{8}}}
\@writefile{toc}{\beamer@sectionintoc {3}{Como funciona?}{9}{0}{3}}
\@writefile{nav}{\headcommand {\beamer@sectionpages {6}{8}}}
\@writefile{nav}{\headcommand {\beamer@subsectionpages {6}{8}}}
\@writefile{nav}{\headcommand {\sectionentry {3}{Como funciona?}{9}{Como funciona?}{0}}}
\@writefile{toc}{\beamer@subsectionintoc {3}{1}{Estrutura}{9}{0}{3}}
\@writefile{nav}{\headcommand {\beamer@subsectionpages {9}{8}}}
\@writefile{nav}{\headcommand {\beamer@subsectionentry {0}{3}{1}{9}{Estrutura}}}
\@writefile{nav}{\headcommand {\slideentry {3}{1}{1}{9/9}{Estrutura}{0}}}
\@writefile{nav}{\headcommand {\beamer@framepages {9}{9}}}
\@writefile{toc}{\beamer@subsectionintoc {3}{2}{Publisher e Subscriber}{10}{0}{3}}
\@writefile{nav}{\headcommand {\beamer@subsectionpages {9}{9}}}
\@writefile{nav}{\headcommand {\beamer@subsectionentry {0}{3}{2}{10}{Publisher e Subscriber}}}
\@writefile{nav}{\headcommand {\slideentry {3}{2}{1}{10/10}{Publisher e Subscriber}{0}}}
\@writefile{nav}{\headcommand {\beamer@framepages {10}{10}}}
\@writefile{nav}{\headcommand {\slideentry {3}{2}{2}{11/11}{Publisher e Subscriber}{0}}}
\@writefile{nav}{\headcommand {\beamer@framepages {11}{11}}}
\@writefile{toc}{\beamer@sectionintoc {4}{M\IeC {\~a}os a obra}{12}{0}{4}}
\@writefile{nav}{\headcommand {\beamer@sectionpages {9}{11}}}
\@writefile{nav}{\headcommand {\beamer@subsectionpages {10}{11}}}
\@writefile{nav}{\headcommand {\sectionentry {4}{M\IeC {\~a}os a obra}{12}{M\IeC {\~a}os a obra}{0}}}
\@writefile{toc}{\beamer@subsectionintoc {4}{1}{Sistema Operacional}{12}{0}{4}}
\@writefile{nav}{\headcommand {\beamer@subsectionpages {12}{11}}}
\@writefile{nav}{\headcommand {\beamer@subsectionentry {0}{4}{1}{12}{Sistema Operacional}}}
\@writefile{nav}{\headcommand {\slideentry {4}{1}{1}{12/12}{Sistema Operacional}{0}}}
\@writefile{nav}{\headcommand {\beamer@framepages {12}{12}}}
\@writefile{nav}{\headcommand {\slideentry {4}{1}{2}{13/13}{Sistema Operacional}{0}}}
\@writefile{nav}{\headcommand {\beamer@framepages {13}{13}}}
\@writefile{nav}{\headcommand {\slideentry {4}{1}{3}{14/14}{Sistema Operacional}{0}}}
\@writefile{nav}{\headcommand {\beamer@framepages {14}{14}}}
\@writefile{nav}{\headcommand {\slideentry {4}{1}{4}{15/15}{Sistema Operacional}{0}}}
\@writefile{nav}{\headcommand {\beamer@framepages {15}{15}}}
\@writefile{nav}{\headcommand {\slideentry {4}{1}{5}{16/16}{Sistema Operacional}{0}}}
\@writefile{nav}{\headcommand {\beamer@framepages {16}{16}}}
\@writefile{nav}{\headcommand {\slideentry {4}{1}{6}{17/17}{Sistema Operacional}{0}}}
\@writefile{nav}{\headcommand {\beamer@framepages {17}{17}}}
\@writefile{toc}{\beamer@subsectionintoc {4}{2}{Configurando o workspace do ROS}{18}{0}{4}}
\@writefile{nav}{\headcommand {\beamer@subsectionpages {12}{17}}}
\@writefile{nav}{\headcommand {\beamer@subsectionentry {0}{4}{2}{18}{Configurando o workspace do ROS}}}
\@writefile{nav}{\headcommand {\slideentry {4}{2}{1}{18/18}{Configurando o workspace do ROS}{0}}}
\@writefile{nav}{\headcommand {\beamer@framepages {18}{18}}}
\@writefile{nav}{\headcommand {\slideentry {4}{2}{2}{19/19}{Configurando o workspace do ROS}{0}}}
\@writefile{nav}{\headcommand {\beamer@framepages {19}{19}}}
\@writefile{nav}{\headcommand {\slideentry {4}{2}{3}{20/20}{Configurando o workspace do ROS}{0}}}
\@writefile{nav}{\headcommand {\beamer@framepages {20}{20}}}
\@writefile{toc}{\beamer@subsectionintoc {4}{3}{Criando e navegando em um package}{21}{0}{4}}
\@writefile{nav}{\headcommand {\beamer@subsectionpages {18}{20}}}
\@writefile{nav}{\headcommand {\beamer@subsectionentry {0}{4}{3}{21}{Criando e navegando em um package}}}
\@writefile{nav}{\headcommand {\slideentry {4}{3}{1}{21/21}{Criando e navegando em um package}{0}}}
\@writefile{nav}{\headcommand {\beamer@framepages {21}{21}}}
\@writefile{nav}{\headcommand {\slideentry {4}{3}{2}{22/22}{Criando e navegando em um package}{0}}}
\@writefile{nav}{\headcommand {\beamer@framepages {22}{22}}}
\@writefile{nav}{\headcommand {\slideentry {4}{3}{3}{23/23}{Criando e navegando em um package}{0}}}
\@writefile{nav}{\headcommand {\beamer@framepages {23}{23}}}
\@writefile{toc}{\beamer@subsectionintoc {4}{4}{Criando publishers e subscribers}{24}{0}{4}}
\@writefile{nav}{\headcommand {\beamer@subsectionpages {21}{23}}}
\@writefile{nav}{\headcommand {\beamer@subsectionentry {0}{4}{4}{24}{Criando publishers e subscribers}}}
\@writefile{nav}{\headcommand {\slideentry {4}{4}{1}{24/24}{Criando publishers e subscribers}{0}}}
\@writefile{nav}{\headcommand {\beamer@framepages {24}{24}}}
\@writefile{nav}{\headcommand {\slideentry {4}{4}{2}{25/25}{Criando publishers e subscribers}{0}}}
\@writefile{nav}{\headcommand {\beamer@framepages {25}{25}}}
\@writefile{nav}{\headcommand {\slideentry {4}{4}{3}{26/26}{Criando publishers e subscribers}{0}}}
\@writefile{nav}{\headcommand {\beamer@framepages {26}{26}}}
\@writefile{nav}{\headcommand {\slideentry {4}{4}{4}{27/27}{Criando publishers e subscribers}{0}}}
\@writefile{nav}{\headcommand {\beamer@framepages {27}{27}}}
\@writefile{nav}{\headcommand {\slideentry {4}{4}{5}{28/28}{Criando publishers e subscribers}{0}}}
\@writefile{nav}{\headcommand {\beamer@framepages {28}{28}}}
\@writefile{nav}{\headcommand {\slideentry {4}{4}{6}{29/29}{Criando publishers e subscribers}{0}}}
\@writefile{nav}{\headcommand {\beamer@framepages {29}{29}}}
\@writefile{nav}{\headcommand {\slideentry {4}{4}{7}{30/30}{Criando publishers e subscribers}{0}}}
\@writefile{nav}{\headcommand {\beamer@framepages {30}{30}}}
\@writefile{nav}{\headcommand {\slideentry {4}{4}{8}{31/31}{Criando publishers e subscribers}{0}}}
\@writefile{nav}{\headcommand {\beamer@framepages {31}{31}}}
\@writefile{nav}{\headcommand {\slideentry {4}{4}{9}{32/32}{Criando publishers e subscribers}{0}}}
\@writefile{nav}{\headcommand {\beamer@framepages {32}{32}}}
\@writefile{nav}{\headcommand {\slideentry {4}{4}{10}{33/33}{Criando publishers e subscribers}{0}}}
\@writefile{nav}{\headcommand {\beamer@framepages {33}{33}}}
\@writefile{nav}{\headcommand {\slideentry {4}{4}{11}{34/34}{Criando publishers e subscribers}{0}}}
\@writefile{nav}{\headcommand {\beamer@framepages {34}{34}}}
\@writefile{nav}{\headcommand {\slideentry {4}{4}{12}{35/35}{Criando publishers e subscribers}{0}}}
\@writefile{nav}{\headcommand {\beamer@framepages {35}{35}}}
\@writefile{nav}{\headcommand {\slideentry {4}{4}{13}{36/36}{Criando publishers e subscribers}{0}}}
\@writefile{nav}{\headcommand {\beamer@framepages {36}{36}}}
\@writefile{nav}{\headcommand {\slideentry {4}{4}{14}{37/37}{Criando publishers e subscribers}{0}}}
\@writefile{nav}{\headcommand {\beamer@framepages {37}{37}}}
\@writefile{nav}{\headcommand {\slideentry {4}{4}{15}{38/38}{Criando publishers e subscribers}{0}}}
\@writefile{nav}{\headcommand {\beamer@framepages {38}{38}}}
\@writefile{nav}{\headcommand {\slideentry {4}{4}{16}{39/39}{Criando publishers e subscribers}{0}}}
\@writefile{nav}{\headcommand {\beamer@framepages {39}{39}}}
\@writefile{nav}{\headcommand {\slideentry {4}{4}{17}{40/40}{Criando publishers e subscribers}{0}}}
\@writefile{nav}{\headcommand {\beamer@framepages {40}{40}}}
\@writefile{nav}{\headcommand {\beamer@partpages {1}{40}}}
\@writefile{nav}{\headcommand {\beamer@subsectionpages {24}{40}}}
\@writefile{nav}{\headcommand {\beamer@sectionpages {12}{40}}}
\@writefile{nav}{\headcommand {\beamer@documentpages {40}}}
\@writefile{nav}{\headcommand {\gdef \inserttotalframenumber {38}}}
